{
  "project_info": {
    "project_number": "106847366326",
    "firebase_url": "https://goschool-90b03.firebaseio.com",
    "project_id": "goschool-90b03",
    "storage_bucket": "goschool-90b03.appspot.com"
  },
  "client": [
    {
      "client_info": {
        "mobilesdk_app_id": "1:106847366326:android:534abca793b6a989a48a17",
        "android_client_info": {
          "package_name": "com.example.goschool"
        }
      },
      "oauth_client": [
        {
          "client_id": "106847366326-fpsliiml0qigbd1pmp4l1jribhmd36t5.apps.googleusercontent.com",
          "client_type": 1,
          "android_info": {
            "package_name": "com.example.goschool",
            "certificate_hash": "c17cf782a4ad3b8c9e588d4fd0e4384287847dc3"
          }
        },
        {
          "client_id": "106847366326-st617fs9rfs6bu7ctmb6d0cdsnhmpcue.apps.googleusercontent.com",
          "client_type": 3
        }
      ],
      "api_key": [
        {
          "current_key": "AIzaSyAzHsMAPg9yvb2WbPUMp-gxeHRZUpySqLg"
        }
      ],
      "services": {
        "appinvite_service": {
          "other_platform_oauth_client": [
            {
              "client_id": "106847366326-st617fs9rfs6bu7ctmb6d0cdsnhmpcue.apps.googleusercontent.com",
              "client_type": 3
            }
          ]
        }
      }
    }
  ],
  "configuration_version": "1"
}